[gd_resource type="EditorSettings" format=3]

[resource]
interface/theme/base_color = Color(0.21, 0.24, 0.29, 1)
interface/theme/accent_color = Color(0.44, 0.73, 0.98, 1)
interface/theme/contrast = 0.3
text_editor/theme/highlighting/symbol_color = Color(0.67, 0.79, 1, 1)
text_editor/theme/highlighting/keyword_color = Color(1, 0.44, 0.52, 1)
text_editor/theme/highlighting/control_flow_keyword_color = Color(1, 0.55, 0.8, 1)
text_editor/theme/highlighting/base_type_color = Color(0.26, 1, 0.76, 1)
text_editor/theme/highlighting/engine_type_color = Color(0.56, 1, 0.86, 1)
text_editor/theme/highlighting/user_type_color = Color(0.78, 1, 0.93, 1)
text_editor/theme/highlighting/comment_color = Color(0.8025, 0.81, 0.8225, 0.5)
text_editor/theme/highlighting/string_color = Color(1, 0.93, 0.63, 1)
text_editor/theme/highlighting/background_color = Color(0.1155, 0.132, 0.1595, 1)
text_editor/theme/highlighting/completion_background_color = Color(0.21, 0.24, 0.29, 1)
text_editor/theme/highlighting/completion_selected_color = Color(1, 1, 1, 0.07)
text_editor/theme/highlighting/completion_existing_color = Color(1, 1, 1, 0.14)
text_editor/theme/highlighting/completion_font_color = Color(0.8025, 0.81, 0.8225, 1)
text_editor/theme/highlighting/text_color = Color(0.8025, 0.81, 0.8225, 1)
text_editor/theme/highlighting/line_number_color = Color(0.8025, 0.81, 0.8225, 0.5)
text_editor/theme/highlighting/safe_line_number_color = Color(0.8025, 0.972, 0.8225, 0.75)
text_editor/theme/highlighting/caret_color = Color(1, 1, 1, 1)
text_editor/theme/highlighting/text_selected_color = Color(0.084, 0.096, 0.116, 1)
text_editor/theme/highlighting/selection_color = Color(0.44, 0.73, 0.98, 0.4)
text_editor/theme/highlighting/brace_mismatch_color = Color(1, 0.47, 0.42, 1)
text_editor/theme/highlighting/current_line_color = Color(1, 1, 1, 0.07)
text_editor/theme/highlighting/line_length_guideline_color = Color(0.21, 0.24, 0.29, 1)
text_editor/theme/highlighting/word_highlighted_color = Color(1, 1, 1, 0.07)
text_editor/theme/highlighting/number_color = Color(0.63, 1, 0.88, 1)
text_editor/theme/highlighting/function_color = Color(0.34, 0.7, 1, 1)
text_editor/theme/highlighting/member_variable_color = Color(0.736, 0.88, 1, 1)
text_editor/theme/highlighting/mark_color = Color(1, 0.47, 0.42, 0.3)
text_editor/theme/highlighting/breakpoint_color = Color(1, 0.47, 0.42, 1)
text_editor/theme/highlighting/code_folding_color = Color(1, 1, 1, 0.27)
text_editor/theme/highlighting/search_result_color = Color(1, 1, 1, 0.07)
text_editor/behavior/files/autosave_interval_secs = 1
text_editor/completion/idle_parse_delay = 1.0
text_editor/completion/code_complete_delay = 0.01
text_editor/completion/add_type_hints = true
asset_library/available_urls = {
"godotengine.org (Official)": "https://godotengine.org/asset-library/api"
}
asset_library/use_threads = true
export/android/android_sdk_path = ""
export/android/debug_keystore = ""
export/android/debug_keystore_user = "androiddebugkey"
export/android/debug_keystore_pass = "android"
export/android/force_system_user = false
export/android/shutdown_adb_on_exit = true
export/android/one_click_deploy_clear_previous_install = false
export/macos/rcodesign = ""
export/web/http_host = "localhost"
export/web/http_port = 8060
export/web/use_ssl = false
export/web/ssl_key = ""
export/web/ssl_certificate = ""
export/windows/rcedit = ""
export/windows/osslsigncode = ""
export/windows/wine = ""
interface/editor/save_on_focus_loss = false
interface/editor/show_update_spinner = false
interface/editor/update_continuously = false
interface/editor/localize_settings = true
interface/scene_tabs/restore_scenes_on_load = true
interface/inspector/default_property_name_style = 1
interface/inspector/default_float_step = 0.001
interface/inspector/disable_folding = false
interface/inspector/auto_unfold_foreign_scenes = true
interface/inspector/horizontal_vector2_editing = false
interface/inspector/horizontal_vector_types_editing = true
interface/inspector/open_resources_in_current_inspector = true
interface/inspector/resources_to_open_in_new_inspector = PackedStringArray("Script", "MeshLibrary")
interface/inspector/default_color_picker_mode = 0
interface/inspector/default_color_picker_shape = 3
_default_feature_profile = ""
version_control/username = ""
version_control/ssh_public_key_path = ""
version_control/ssh_private_key_path = ""
interface/editors/show_scene_tree_root_selection = true
interface/editors/derive_script_globals_by_name = true
_use_favorites_root_selection = false
interface/editors/default_signal_callback_name = "_on_{node_name}_{signal_name}"
filesystem/file_server/port = 6010
filesystem/file_server/password = ""
debugger/auto_switch_to_remote_scene_tree = false
debugger/profiler_frame_max_functions = 64
debugger/remote_scene_tree_refresh_interval = 1.0
debugger/remote_inspect_refresh_interval = 0.2
network/debug_adapter/remote_port = 6006
network/debug_adapter/request_timeout = 1000
network/debug_adapter/sync_breakpoints = false
editors/3d/manipulator_gizmo_size = 80
editors/3d/manipulator_gizmo_opacity = 0.9
editors/3d/navigation/show_viewport_rotation_gizmo = true
text_editor/behavior/files/auto_reload_and_parse_scripts_on_save = true
text_editor/behavior/files/open_dominant_script_on_scene_change = true
text_editor/external/use_external_editor = false
text_editor/external/exec_path = ""
text_editor/script_list/script_temperature_enabled = true
text_editor/script_list/script_temperature_history_size = 15
text_editor/script_list/group_help_pages = true
text_editor/script_list/sort_scripts_by = 0
text_editor/script_list/list_script_names_as = 0
text_editor/external/exec_flags = "{file}"
editors/bone_mapper/handle_colors/unset = Color(0.3, 0.3, 0.3, 1)
editors/bone_mapper/handle_colors/set = Color(0.1, 0.6, 0.25, 1)
editors/bone_mapper/handle_colors/missing = Color(0.8, 0.2, 0.8, 1)
editors/bone_mapper/handle_colors/error = Color(0.8, 0.2, 0.2, 1)
editors/3d_gizmos/gizmo_colors/path = Color(0.5, 0.5, 1, 0.8)
editors/3d_gizmos/gizmo_colors/skeleton = Color(1, 0.8, 0.4, 1)
editors/3d_gizmos/gizmo_colors/selected_bone = Color(0.8, 0.3, 0, 1)
editors/3d_gizmos/gizmo_settings/bone_axis_length = 0.1
editors/3d_gizmos/gizmo_settings/bone_shape = 1
editors/3d_gizmos/gizmo_colors/csg = Color(0, 0.4, 1, 0.15)
editors/grid_map/editor_side = 1
editors/grid_map/palette_min_width = 230
editors/grid_map/preview_size = 64
network/language_server/remote_host = "127.0.0.1"
network/language_server/remote_port = 6005
network/language_server/enable_smart_resolve = true
network/language_server/show_native_symbols_in_editor = false
network/language_server/use_thread = false
filesystem/import/blender/blender3_path = ""
filesystem/import/fbx/fbx2gltf_path = ""
editors/3d_gizmos/gizmo_colors/camera = Color(0.8, 0.4, 0.8, 1)
editors/3d_gizmos/gizmo_colors/stream_player_3d = Color(0.4, 0.8, 1, 1)
editors/3d_gizmos/gizmo_colors/occluder = Color(0.8, 0.5, 1, 1)
editors/3d_gizmos/gizmo_colors/visibility_notifier = Color(0.8, 0.5, 0.7, 1)
editors/3d_gizmos/gizmo_colors/particles = Color(0.8, 0.7, 0.4, 1)
editors/3d_gizmos/gizmo_colors/particle_attractor = Color(1, 0.7, 0.5, 1)
editors/3d_gizmos/gizmo_colors/particle_collision = Color(0.5, 0.7, 1, 1)
editors/3d_gizmos/gizmo_colors/reflection_probe = Color(0.6, 1, 0.5, 1)
editors/3d_gizmos/gizmo_colors/decal = Color(0.6, 0.5, 1, 1)
editors/3d_gizmos/gizmo_colors/voxel_gi = Color(0.5, 1, 0.6, 1)
editors/3d_gizmos/gizmo_colors/lightmap_lines = Color(0.5, 0.6, 1, 1)
editors/3d_gizmos/gizmo_colors/lightprobe_lines = Color(0.5, 0.6, 1, 1)
editors/3d_gizmos/gizmo_colors/joint_body_a = Color(0.6, 0.8, 1, 1)
editors/3d_gizmos/gizmo_colors/joint_body_b = Color(0.6, 0.9, 1, 1)
editors/3d_gizmos/gizmo_colors/fog_volume = Color(0.5, 0.7, 1, 1)
export/web/use_tls = false
export/web/tls_key = ""
export/web/tls_certificate = ""
text_editor/theme/highlighting/gdscript/function_definition_color = Color(0.4, 0.9, 1, 1)
text_editor/theme/highlighting/gdscript/global_function_color = Color(0.64, 0.64, 0.96, 1)
text_editor/theme/highlighting/gdscript/node_path_color = Color(0.72, 0.77, 0.49, 1)
text_editor/theme/highlighting/gdscript/node_reference_color = Color(0.39, 0.76, 0.35, 1)
text_editor/theme/highlighting/gdscript/annotation_color = Color(1, 0.7, 0.45, 1)
text_editor/theme/highlighting/gdscript/string_name_color = Color(1, 0.76, 0.65, 1)
text_editor/help/sort_functions_alphabetically = true
